{
    "title": "Bakalie i nasiona",
    "data": {
        "products": [{
            "productName": "Garść mieszanki orzechów i żurawiny enerBio",
            "weight": "40 g",
            "macros": [{
                "label": "Energia",
                "value": "188"
            }, {
                "label": "Białko",
                "value": "4,4"
            }, {
                "label": "Tłuszcz",
                "value": "10,0"
            }, {
                "label": "Węglowodany",
                "value": "18,4"
            }, {
                "label": "Cukry proste",
                "value": "15,2"
            }, {
                "label": "Błonnik",
                "value": "0,0"
            }, {
                "label": "Sól",
                "value": "0,0"
            }]
        }, {
            "productName": "Garść mieszanki studenckiej",
            "weight": "40 g",
            "macros": [{
                "label": "Energia",
                "value": "210"
            }, {
                "label": "Białko",
                "value": "6,4"
            }, {
                "label": "Tłuszcz",
                "value": "14,4"
            }, {
                "label": "Węglowodany",
                "value": "14,0"
            }, {
                "label": "Cukry proste",
                "value": "0,0"
            }, {
                "label": "Błonnik",
                "value": "1,9"
            }, {
                "label": "Sól",
                "value": "0,0"
            }]
        }, {
            "productName": "Garść mieszanki żurawiny i migdałów Love Las",
            "weight": "50 g",
            "macros": [{
                "label": "Energia",
                "value": "218"
            }, {
                "label": "Białko",
                "value": "3,8"
            }, {
                "label": "Tłuszcz",
                "value": "9,0"
            }, {
                "label": "Węglowodany",
                "value": "28,0"
            }, {
                "label": "Cukry proste",
                "value": "25,0"
            }, {
                "label": "Błonnik",
                "value": "4,7"
            }, {
                "label": "Sól",
                "value": "0,0"
            }]
        }, {
            "productName": "Garść migdałów",
            "weight": "30 g",
            "macros": [{
                "label": "Energia",
                "value": "181"
            }, {
                "label": "Białko",
                "value": "7,2"
            }, {
                "label": "Tłuszcz",
                "value": "15,6"
            }, {
                "label": "Węglowodany",
                "value": "2,3"
            }, {
                "label": "Cukry proste",
                "value": "0,0"
            }, {
                "label": "Błonnik",
                "value": "3,9"
            }, {
                "label": "Sól",
                "value": "0,0"
            }]
        }, {
            "productName": "Garść migdałów w łupinach",
            "weight": "35 g",
            "macros": [{
                "label": "Energia",
                "value": "209"
            }, {
                "label": "Białko",
                "value": "7,7"
            }, {
                "label": "Tłuszcz",
                "value": "18,6"
            }, {
                "label": "Węglowodany",
                "value": "6,7"
            }, {
                "label": "Cukry proste",
                "value": "0,0"
            }, {
                "label": "Błonnik",
                "value": "4,2"
            }, {
                "label": "Sól",
                "value": "0,0"
            }]
        }, {
            "productName": "Garść mixu ziaren enerBIO",
            "weight": "35 g",
            "macros": [{
                "label": "Energia",
                "value": "181"
            }, {
                "label": "Białko",
                "value": "13,2"
            }, {
                "label": "Tłuszcz",
                "value": "11,8"
            }, {
                "label": "Węglowodany",
                "value": "3,2"
            }, {
                "label": "Cukry proste",
                "value": "0,9"
            }, {
                "label": "Błonnik",
                "value": "4,2"
            }, {
                "label": "Sól",
                "value": "0,4"
            }]
        }, {
            "productName": "Garść nerkowców",
            "weight": "35 g",
            "macros": [{
                "label": "Energia",
                "value": "194"
            }, {
                "label": "Białko",
                "value": "6,4"
            }, {
                "label": "Tłuszcz",
                "value": "15,3"
            }, {
                "label": "Węglowodany",
                "value": "11,4"
            }, {
                "label": "Cukry proste",
                "value": "2,1"
            }, {
                "label": "Błonnik",
                "value": "1,2"
            }, {
                "label": "Sól",
                "value": "0,0"
            }]
        }, {
            "productName": "Garść orzechów brazylijskich",
            "weight": "50 g",
            "macros": [{
                "label": "Energia",
                "value": "328"
            }, {
                "label": "Białko",
                "value": "7,0"
            }, {
                "label": "Tłuszcz",
                "value": "33,0"
            }, {
                "label": "Węglowodany",
                "value": "2,0"
            }, {
                "label": "Cukry proste",
                "value": "0,0"
            }, {
                "label": "Błonnik",
                "value": "4,0"
            }, {
                "label": "Sól",
                "value": "0,0"
            }]
        }, {
            "productName": "Garść orzechów laskowych",
            "weight": "30 g",
            "macros": [{
                "label": "Energia",
                "value": "200"
            }, {
                "label": "Białko",
                "value": "5,1"
            }, {
                "label": "Tłuszcz",
                "value": "18,9"
            }, {
                "label": "Węglowodany",
                "value": "1,8"
            }, {
                "label": "Cukry proste",
                "value": "0,0"
            }, {
                "label": "Błonnik",
                "value": "2,7"
            }, {
                "label": "Sól",
                "value": "0,0"
            }]
        }, {
            "productName": "Garść orzechów macadamia",
            "weight": "40 g",
            "macros": [{
                "label": "Energia",
                "value": "287"
            }, {
                "label": "Białko",
                "value": "3,2"
            }, {
                "label": "Tłuszcz",
                "value": "30,3"
            }, {
                "label": "Węglowodany",
                "value": "5,7"
            }, {
                "label": "Cukry proste",
                "value": "1,8"
            }, {
                "label": "Błonnik",
                "value": "3,4"
            }, {
                "label": "Sól",
                "value": "0,0"
            }]
        }, {
            "productName": "Garść orzechów pecan",
            "weight": "30 g",
            "macros": [{
                "label": "Energia",
                "value": "207"
            }, {
                "label": "Białko",
                "value": "2,8"
            }, {
                "label": "Tłuszcz",
                "value": "21,6"
            }, {
                "label": "Węglowodany",
                "value": "4,2"
            }, {
                "label": "Cukry proste",
                "value": "1,2"
            }, {
                "label": "Błonnik",
                "value": "2,9"
            }, {
                "label": "Sól",
                "value": "0,0"
            }]
        }, {
            "productName": "Garść orzechów piniowych",
            "weight": "20 g",
            "macros": [{
                "label": "Energia",
                "value": "135"
            }, {
                "label": "Białko",
                "value": "3,3"
            }, {
                "label": "Tłuszcz",
                "value": "13,7"
            }, {
                "label": "Węglowodany",
                "value": "2,6"
            }, {
                "label": "Cukry proste",
                "value": "0,7"
            }, {
                "label": "Błonnik",
                "value": "0,7"
            }, {
                "label": "Sól",
                "value": "0,0"
            }]
        }, {
            "productName": "Garść orzechów włoskich",
            "weight": "30 g",
            "macros": [{
                "label": "Energia",
                "value": "200"
            }, {
                "label": "Białko",
                "value": "5,4"
            }, {
                "label": "Tłuszcz",
                "value": "18,1"
            }, {
                "label": "Węglowodany",
                "value": "3,5"
            }, {
                "label": "Cukry proste",
                "value": "0,0"
            }, {
                "label": "Błonnik",
                "value": "2,0"
            }, {
                "label": "Sól",
                "value": "0,0"
            }]
        }, {
            "productName": "Garść orzechów ziemnych",
            "weight": "30 g",
            "macros": [{
                "label": "Energia",
                "value": "183"
            }, {
                "label": "Białko",
                "value": "8,0"
            }, {
                "label": "Tłuszcz",
                "value": "14,4"
            }, {
                "label": "Węglowodany",
                "value": "4,3"
            }, {
                "label": "Cukry proste",
                "value": "0,0"
            }, {
                "label": "Błonnik",
                "value": "2,2"
            }, {
                "label": "Sól",
                "value": "0,0"
            }]
        }, {
            "productName": "Garść orzechów ziemnych w polewie Wasabi",
            "weight": "35 g",
            "macros": [{
                "label": "Energia",
                "value": "188"
            }, {
                "label": "Białko",
                "value": "8,0"
            }, {
                "label": "Tłuszcz",
                "value": "11,1"
            }, {
                "label": "Węglowodany",
                "value": "14,0"
            }, {
                "label": "Cukry proste",
                "value": "0,0"
            }, {
                "label": "Błonnik",
                "value": "0,0"
            }, {
                "label": "Sól",
                "value": "0,0"
            }]
        }, {
            "productName": "Garść orzeszków macadamia prażonych, z cukrem, miodem i chilli",
            "weight": "40 g",
            "macros": [{
                "label": "Energia",
                "value": "266"
            }, {
                "label": "Białko",
                "value": "2,5"
            }, {
                "label": "Tłuszcz",
                "value": "23,2"
            }, {
                "label": "Węglowodany",
                "value": "10,4"
            }, {
                "label": "Cukry proste",
                "value": "9,2"
            }, {
                "label": "Błonnik",
                "value": "0,0"
            }, {
                "label": "Sól",
                "value": "0,4"
            }]
        }]
    }
}